Seris_Station_Name,Meter_Cols,Meter_Cols2,Gen1_Columns,Seris_No_Meters,Seris_Meter_Reference,Flexi_Station_Name,Meter_Cols_Flexi,Flexi_Irradiation,Flexi_No_Meters,Flexi_Meter_Reference,Locus_Station_Name,Locus_Irradiation,Locus_No_Meters,Locus_Meter_Reference
[SG-003S],"['Date','Gsi00','LastR1','LastR2','LastR3','Eac2MA','Eac2MB','Eac2MC','LastT1','LastT2','LastT3','DA']","['Date','GHI','LastR-MA','LastR-MB','LastR-MC','Eac-MA','Eac-MB','Eac-MC','LastT','LastT','LastT','DA']","[""Time Stamp"",""GSi00"",""Eac_A"",""Eac_B"",""Eac_C""]",3,"['SG-003A', 'SG-003B', 'SG-003C']",Down,"['GDC_MFM','MAR_MFM']",,2,"['IN-004A', 'IN-004B']",[IN-031L],,2,"['IN-031B', 'IN-031A']"
[MY-004S],"['Date','GSi','LastR1','Eac21','LastT1','DA']","['Date','GHI','LastR-1','Eac-1','LastT','DA']","[""Timestamp"",""AvgGsi00"",""Act_E-Recv_M1""]",1,['MY-004A'],Down,['MFM'],,1,['IN-005C'],[IN-038L],,1,['IN-038A']
[MY-006S],"['Date','GSi','LastR1','LastR2','LastR3','Eac21','Eac22','Eac23','LastT1','DA']","['Date','GHI','LastR-M1','LastR-M2','LastR-M3','Eac-M1','Eac-M2','Eac-M3','LastT','DA']","[""Time Stamp"",""AvgGSi00"",""Act_E-Del_M1"",""Act_E-Del_M2"",""Act_E-Del_M3""]",3,"['MY-006A', 'MY-006B','MY-006C']",Down,"['ABS_MFM','EMR_MFM','ERD_MFM','SS_MFM','U21_MFM','U24_MFM']",,6,"['IN-006A', 'IN-006D', 'IN-006B', 'IN-006F', 'IN-006G', 'IN-006C']",[IN-045L],[IN-047L],1,['IN-045A']
[KH-003S],"['Date','Irradiance','LastReadSol','LastReadCoke','EacSolMeth2','EacCokeMeth2','LastTimeCoke','DA']","['Date','GHI','LastR-SL','LastR-CK','Eac-SL','Eac-CK','LastT','DA']","[""Time Stamp"",""AvgGsi00"",""Act_E-Del_CK"",""Act_E-Del_SL""]",2,"['KH-003A', 'KH-003B']",Down,['MFM'],,1,['IN-009A'],[IN-047L],,1,['IN-047A']
[KH-008S],"['Date','Gsi01','LastReadPond','LastReadR02','LastReadR03','LastReadR06','LastReadR11','Eac2Pond','Eac2R02','Eac2R03','Eac2R06','Eac2R11','LastTimePond','PR2Full']","['Date','GHI','LastR-Pond','LastR-R02','LastR-R03','LastR-R06','LastR-R11','Eac-Pond','Eac-R02','Eac-R03','Eac-R06','Eac-R11','LastT','DA']","[""Time Stamp"",""AvgGsi00_Shr"",""Act_E-Del_Pond"",""Act_E-Del_R02"",""Act_E-Del_R03"",""Act_E-Del_R06"",""Act_E-Del_R11""]",5,"['KH-008A', 'KH-008B', 'KH-008C','KH-008D','KH-008E']",[IN-012C],"['SM3','SM4']",,2,"['IN-012F', 'IN-012G']",[IN-048L],,3,"['IN-048A', 'IN-048B', 'IN-048C']"
[SG-004S],"['Date','Gsi00','LastR1','LastR2','Eac2MA','Eac2MB','LastT1','DA']","['Date','GHI','LastR-1','LastR-2','Eac-1','Eac-2','LastT','DA']","[""TimeStamp"",""GSi00"",""Act_E-Recv_A"",""Act_E-Recv_B""]",2,"['SG-004A', 'SG-004B']",[IN-013C],"['MLCP1','MLCP2','SDB1','SDB2','SDB3']",,5,"['IN-013D', 'IN-013E', 'IN-013H', 'IN-013G', 'IN-013F']",[IN-049L],[IN-047L],1,['IN-049A']
[IN-015S],"['Date','Gsi','LastReadSolGenHV','SolEnergyDelHVSide','GmodWT','DA']","['Date','GHI','LastR-1','Eac-1','LastT','DA']","[""Time Stamp"",""AvgGsi00"",""Act_E-Del-Rec_HV""]",1,['IN-015A'],[IN-016C],"['DI_B_MFM','PR_B_MFM','TE_C_MFM','UP_CR_MFM']",,4,['IN-017A'],[IN-052L],,2,"['IN-052B', 'IN-052A']"
[SG-005S],"['Date','GSi','LastR1','LastReadFab35','LastReadFab71','LastReadFab72','LastReadFab7G','LastReadFab2Rec','LastReadFab35Rec','LastReadFab21Rec','LastReadFab22Rec','LastReadFab7GRec','Eac21','Eac2Fab35','Eac2Fab71','Eac2Fab72','Eac2Fab7G','Eac21','Eac2Fab35','Eac2Fab71','Eac2Fab72','Eac2Fab7G','LastT1','DA']","['Date','GHI','LastR-1','LastR-2','LastR-3','LastR-4','LastR-5','LastR-6','LastR-7','LastR-8','LastR-9','LastR-10','Eac-1','Eac-2','Eac-3','Eac-4','Eac-5','Eac-6','Eac-7','Eac-8','Eac-9','Eac-10','LastT','DA']","[""Time Stamp"",""AvgGsi00"",""Act_E-Del_F2"",""Act_E-Del_F3-5"",""Act_E-Del_F7A"",""Act_E-Del_F7B"",""Act_E-Del_F7G"",""Act_E-Recv_F2"",""Act_E-Recv_F3-5"",""Act_E-Recv_F7A"",""Act_E-Recv_F7B"",""Act_E-Recv_F7G""]",10,"['SG-005A', 'SG-005B','SG-005C', 'SG-005D','SG-005E']",[IN-017C],['MFM'],,1,['IN-019A'],[IN-053L],,1,['IN-053A']
[KH-001S],"['Date','Irradiation','LastRead','LastRead.1','TotPowerMeter2','SolarPowerConsumedLoad','LastTime','DA']","['Date','GHI','LastR-1','LastR-2','Eac-1','Eac-2','LastT','DA']","[""Timestamp"",""AvgGsi00"",""Act_E-Del""]",2,['KH-001A'],[IN-019C],['MFM'],[IN-035C],1,['IN-020A'],[IN-055L],[IN-063L],1,['IN-055C']
[VN-001S],"['Date','GSi','LastR1','Eac21','LastT1','DA']","['Date','GHI','LastR-1','Eac-1','LastT','DA']","[""Timestamp"",""AvgGsi00"",""Act_E-Del_M1""]",1,['VN-001A'],[IN-020C],['MFM'],,1,['IN-021A'],[IN-056L],[IN-038L],1,"['IN-056A', 'IN-056B']"
[KH-005X],"['Date','GsiTot','LastTimeSol','EacSolMeth2','LastReadSol','DA']","['Date','GHI','LastR-1','Eac-1','LastT','DA']",,1,['KH-005A'],[IN-021C],['MFM'],,1,"['IN-022D', 'IN-022A', 'IN-022C', 'IN-022B']",[IN-059L],[IN-061L],1,['IN-059A']
[KH-006X],"['Date','GsiTot','LastReadSol1','LastReadSol2','EacSol1Meth2','EacSol2Meth2','LastTimeSol1','DA']","['Date','GHI','LastR-1','LastR-2','Eac-1','Eac-2','LastT','DA']",,2,"['KH-006A', 'KH-006B']",[IN-022C],"['OG1','OG2','OG3','OG4']",,4,['IN-023C'],[IN-060L],,1,['IN-060A']
[TH-002X],"['Date','GsiTot','LastTimeSol','EacSolMeth2','LastReadSol','DA']","['Date','GHI','LastR-1','Eac-1','LastT','DA']",,1,['TH-002A'],[IN-023C],['MFM'],,1,['IN-025A'],[IN-061L],,1,['IN-061A']
[TH-003X],"['Date','GSi','LastReadM2','LastReadM4','Eac2M2','Eac2M4','LastTimeM2','DA']","['Date','GHI','LastR-1','LastR-2','Eac-1','Eac-2','LastT','DA']",,2,"['TH-003A', 'TH-003B']",[IN-025C],['MFM'],[IN-044C],1,"['IN-026F', 'IN-026B', 'IN-026E', 'IN-026D', 'IN-026A']",[IN-063L],,1,['IN-063A']
[KH-004X],"['Date','GsiTot','LastReadSol1','LastReadSol2','EacSol1Meth2','EacSol2Meth2','LastTimeSol1','DA']","['Date','GHI','LastR-1','LastR-2','Eac-1','Eac-2','LastT','DA']",,2,"['KH-004A', 'KH-004B']",[IN-026C],"['DC','GH','MC','NC','SS']",,5,['IN-027E'],[IN-066L],,1,['IN-066A']
[MY-001X],"['Date','GHIMY002','LastReadDel','Eac2','LastTime','DA']","['Date','GHI','LastR-1','Eac-1','LastT','DA']",,1,['TH-002A'],[IN-027C],['MFM'],,1,['IN-028E'],[IN-067L],[IN-037C],1,['IN-067A']
[SG-001X],"['Date','Gsi','LastRead','EacTotMethod2','LastTime','PR2']","['Date','GHI','LastR-1','Eac-1','LastT','DA']",,1,['SG-001A'],[IN-028C],['MFM'],,1,['IN-029B'],[IN-068L],,1,['IN-068B']
[SG-002X],"['Date','GSI','LastRead','EacTotMethod2','LastTime','PR2']","['Date','GHI','LastR-1','Eac-1','LastT','DA']",,1,['SG-002A'],[IN-029C],['MFM'],,1,['IN-030B'],[IN-071L],,1,['IN-071B']
[MY-003X],"['Date','Irr','LastReadGF1','LastReadGF2','LastReadGF3','Eac2GF2','Eac2GF2.1','Eac2GF3','LastTimeGF1','DA']","['Date','GHI','LastR-1','LastR-2','LastR-3','Eac-1','Eac-2','Eac-3','LastT','DA']",,3,"['MY-003A', 'MY-003B','MY-003C']",[IN-030C],['MFM'],,1,['IN-032A'],[IN-073L],[IN-071L],1,['IN-073B']
[KH-002X],"['Date','Irradiance','lastRead','LastReadLoad','SolarEnergy','EnergyRecv','LastTime','DA']","['Date','GHI','LastR-1','LastR-2','Eac-1','Eac-2','LastT','DA']",,2,['KH-002A'],[IN-032C],['MFM'],,1,"['IN-033A', 'IN-033B']",[IN-074L],,2,"['IN-074A', 'IN-074B']"
[KH-007X],"['Date','GPy','LastRead','Eac2','LastTime','DA']","['Date','GHI','LastR-1','Eac-1','LastT','DA']",,1,['KH-007A'],[IN-033C],"['Block_G_MFM','Block_K_MFM']",,2,['IN-034A'],[MY-008L],MY-006-LT,2,"['MY-008A', 'MY-008B']"
[IN-008X],"['Date','EacTotMethod1Meter1','LastRead','LastRead2','EacTotMethod2Meter1','EacTotMethod2Meter2','LastTime','EacTotMethod1Meter2']","['Date','GHI','LastR-1','LastR-2','Eac-1','Eac-2','LastT','DA']",,2,"['IN-008A', 'IN-008B']",[IN-034C],['MFM'],,1,"['IN-035B', 'IN-035A']",[MY-009L],,1,['MY-009A']
[IN-010X],"['Date','IrrIN003T','LastRead','Eac2','LastTime','DA']","['Date','GHI','LastR-1','Eac-1','LastT','DA']",,1,['IN-010A'],[IN-035C],"['OG','ICOG']",,2,"['IN-036B', 'IN-036A']",,,,
,,,,,,[IN-036C],"['CI_MFM','SI_MFM']",,2,"['IN-037B', 'IN-037A']",,,,
,,,,,,[IN-037C],"['CorpOf_MFM','Toolshed_MFM']",,2,['IN-039F'],,,,
,,,,,,[IN-039C],['MFM'],,1,['IN-040A'],,,,
,,,,,,[IN-040C],['MFM'],,1,"['IN-044B', 'IN-044C']",,,,
,,,,,,[IN-044C],"['Charles_MFM','Faraday_MFM']",,2,"['IN-046B', 'IN-046A']",,,,
,,,,,,[IN-046C],"['MFM1','MFM2']",,2,['IN-054C'],,,,
,,,,,,[IN-054C],['MFM'],,1,"['IN-070B', 'IN-070A', 'IN-070C']",,,,
,,,,,,Down,"['ESS_2','ESS_3','ESS_10']",,3,,,,,
