﻿ComponentType,MPName,CSName
MFM,Date,Timestamp
MFM,Apparent power,AC_Apparent_Power
MFM,Active power,AC_Power
MFM,Current average,AC_Current
MFM,Apparent power,AC_Phase_A_Apparent_Power
MFM,Active power,AC_Power_A
MFM,"Current, phase 1",AC_Phase_A_Current
MFM,"Apparent power, phase 2",AC_Phase_B_Apparent_Power
MFM,"Active power, phase 2",AC_Power_B
MFM,"Current, phase 2",AC_Phase_B_Current
MFM,"Apparent power, phase 3",AC_Phase_C_Apparent_Power
MFM,"Active power, phase 3",AC_Power_C
MFM,"Current, phase 3",AC_Phase_C_Current
MFM,Forward apparent energy,AC_Total_Exported_Apparent_Energy
MFM,Forward active energy,Export_Meter_Reading
MFM,n hours,Hours_Run
INV,Date,Timestamp
INV,Total Energy Production_min,Inverter_Reading
INV,Total Energy Production_max,Total Energy Production_max
INV,Total Energy Production_avg,Total Energy Production_avg
INV,PV Voltage input 1_min,PV Voltage input 1_min
INV,PV Voltage input 1_max,PV Voltage input 1_max
INV,PV Voltage input 1_avg,DCV1_avg
INV,PV Voltage input 2_min,PV Voltage input 2_min
INV,PV Voltage input 2_max,PV Voltage input 2_max
INV,PV Voltage input 2_avg,DCV2_avg
INV,PV Voltage input 3_min,PV Voltage input 3_min
INV,PV Voltage input 3_max,PV Voltage input 3_max
INV,PV Voltage input 3_avg,DCV3_avg
INV,PV Current input 1_min,PV Current input 1_min
INV,PV Current input 1_max,PV Current input 1_max
INV,PV Current input 1_avg,DC_Current_1
INV,PV Current input 2_min,PV Current input 2_min
INV,PV Current input 2_max,PV Current input 2_max
INV,PV Current input 2_avg,DC_Current_2
INV,PV Current input 3_min,PV Current input 3_min
INV,PV Current input 3_max,PV Current input 3_max
INV,PV Current input 3_avg,DC_Current_3
INV,Instant Energy Production_min,Instant Energy Production_min
INV,Instant Energy Production_max,Instant Energy Production_max
INV,Instant Energy Production_avg,Instant Energy Production_avg
INV,Grid Voltage_min,Grid Voltage_min
INV,Grid Voltage_max,Grid Voltage_max
INV,Grid Voltage_avg,Grid Voltage_avg
INV,Grid Current_min,Grid Current_min
INV,Grid Current_max,Grid Current_max
INV,Grid Current_avg,Grid Current_avg
INV,Grid Frequency_min,Grid Frequency_min
INV,Grid Frequency_max,Grid Frequency_max
INV,Grid Frequency_avg,Frequency
WMS,Date,Timestamp
WMS,Temp_1,Temp_1
WMS,Temp_2,Temp_2
WMS,Temp_3,Temp_3
WMS,Temp_4,Temp_4
WMS,Irradiation_GHI,Irradiance
WMS,Irradiation_GTI,Irradiance_GTI
